{"hash":"9df4056644243df6ccf9f9263c3af53b70b7e69f","data":{"articles":{"pageInfo":{"currentPage":2,"totalPages":3,"totalItems":6,"perPage":2},"edges":[{"node":{"id":"375dc31d302c1c71d145afae6cb37ccd","category":{"title":"Natural Language processing","path":"/category/narural-language-processing/"},"image":{"type":"image","mimeType":"image/jpeg","src":"/assets/static/cv.4250cd3.cadb74661c4a93365057d086cb7cfd7b.jpg","size":{"width":800,"height":501},"sizes":"(max-width: 800px) 100vw, 800px","srcset":["/assets/static/cv.1b91758.cadb74661c4a93365057d086cb7cfd7b.jpg 480w","/assets/static/cv.4250cd3.cadb74661c4a93365057d086cb7cfd7b.jpg 800w"],"dataUri":"data:image/svg+xml,%3csvg fill='none' viewBox='0 0 800 501' xmlns='http://www.w3.org/2000/svg' xmlns:xlink='http://www.w3.org/1999/xlink'%3e%3cdefs%3e%3cfilter id='__svg-blur-512e44688e2bf4613241f01886425642'%3e%3cfeGaussianBlur in='SourceGraphic' stdDeviation='40'/%3e%3c/filter%3e%3c/defs%3e%3cimage x='0' y='0' filter='url(%23__svg-blur-512e44688e2bf4613241f01886425642)' width='800' height='501' xlink:href='data:image/jpeg%3bbase64%2c/9j/2wBDAAYEBQYFBAYGBQYHBwYIChAKCgkJChQODwwQFxQYGBcUFhYaHSUfGhsjHBYWICwgIyYnKSopGR8tMC0oMCUoKSj/2wBDAQcHBwoIChMKChMoGhYaKCgoKCgoKCgoKCgoKCgoKCgoKCgoKCgoKCgoKCgoKCgoKCgoKCgoKCgoKCgoKCgoKCj/wAARCAAoAEADASIAAhEBAxEB/8QAHAAAAgICAwAAAAAAAAAAAAAAAAYFBwMEAQII/8QAMxAAAgEDAgQEAwcFAQAAAAAAAQIDBAURACEGEjFBEzJRYQcVcRQiI0KBocEWM1JTkeH/xAAaAQACAgMAAAAAAAAAAAAAAAADBQAEAQIG/8QAKhEAAQMCBAUEAwEAAAAAAAAAAQACAxEhBBIxcQUTFFFhQYGRsRUiwfD/2gAMAwEAAhEDEQA/APOKWz8MhY%2bSTPmMmRjuMY13FrkStR6unCxyMDkIQoGfT0/jT5HanTB8I47koVxrZqKYy4EvIZEUBQc82Pb/AN3026Mdkg/JElL/ABDDZbnbqGj4ftbU1Wk0i1E5k5hOSSQRtsoGwGoOLhKtqaSoq6SCaWipQGqahUPJDkeU5xv1%2bvb11ZI4SlpFt1ZXvJS22s5uWeECR9vzBc9eg7ba0oImp6GpiKzmGZDzQoxwzjysw6EZ30XpWvdWQU2QmY8sGWM138/6yReFeDrtxBc1prRTCqqFUyeGwwuB/lv37eupuk%2bF11qrbU1088MDxE80Tg8xIO/01c3CN3g%2bGvDa3IUzTSTsFYrhnkkPRAe2dzrTu924o4lrHudStstNNMcrSIvXOMc7Hdjt7D20MYaKN2V7aoMnE8RKDJE4NFaCo1%2b/r3VQ1Pw24gg4ea4JRrPQIxdnjH4mMdQD5gPbPfSb8vY4K5IPQjXpu3cS19Nb/wCmrlFDEtQWMOEHhOx6KCMdenYg7g9RqraejjHET0iwyBKkuY49srINyuTtk4bPuM99TpY3kZbDRGg4nM3NzaG1bW333tsrHa2Rf7FU9jrlaekioqiF0gkaUqRIxPNGQc/d3xvpPhvpjYGQo%2b/RAAP1z/Gtq536klvCytTy0tJIQywwgsQvT7pYgHfvpx1EfZc6cFPpVM9Xanp3WGpPLhQyqX2AIyCNdbzT0c9vo46KnWKohDePIJv7o9T9PTvpNku9SEVipKAeZ3zjc7E%2buubzxWa%2b3wxTeBD4EfhIyLysSDtn1PbOsOxEZFKXW8eCmDheyep43XhWIVDHwPt8HiZAxy529uvLqO42FrR7ZFXNFDWzV0LrUVDsgWnB%2b94YGxYEHfbc4PbW5wbaYPiZw2lugq3gkhYO/KwDo46PjocbjWK9WviXhyt%2bW3CG23iKnJCVit5cY8yndTuPX66WTNzTNc0%2btbfH9VuJpZH%2b9i0kXIHnX2uNVk49rkr4aWpRuctWJ9nk5AhcA4DBQBjIwemkLjGVhxrmmlZJBcQVZBkg9yP31YNHw7cKy3niW6PC0VMWEChx4KMOh2z06kncnYDfVW07xVd%2bkqi8r09MzcsgwDJIepOT2yT9TjtrdoGbtUqyJA5xdS1CfF9AFX/ziXcEZ/XWeO9VFNDzK6MZVKcvMSUUH9u%2bjRpOJn911JgZYURBe6uUeAZykbHJJZiFx%2bbHt/301gpLn4VQPFLNG55ZmB3aPuo9MjRo1jnPsaqcllxRM1Pxq9l4neu4JWW1wYwiyyhyARuGJwDvuNSs3xDrrfbZaUVNNcvtWZDOVKuMsc5BB3OM9uujRo7cXK2rgVUl4fh5HDOyvn1%2bdVGP8SuIam0fJo62OnonO%2bc7DHQH8oPsM6gI75LDCqqTG%2bPKkYC47d86NGhHESOuSiswUEZIY0Ct1//Z' /%3e%3c/svg%3e"},"title":"04. First Article - Part 2","date":"2017-12-22T00:00:00.000Z","author":{"title":"Ramana Reddy Sane","path":"/author/ramsane/"},"excerpt":"The file explorer is accessible using the button in left corner of the navigation bar. You can create a new file by clicking the **New file** button in the file explorer. You can also create folders by clicking the **New folder** button.","tags":[{"id":"t1","title":"vuejs","path":"/tag/vuejs/"},{"id":"t2","title":"mathematics","path":"/tag/mathematics/"}],"path":"/articles/fourth-article/"}},{"node":{"id":"c40eed90791d35646122e6f7d80b159b","category":{"title":"Computer Vision","path":"/category/computer-vision/"},"image":{"type":"image","mimeType":"image/jpeg","src":"/assets/static/tf.7cd98a0.17e6c73af934387519862a7e88369b54.jpg","size":{"width":720,"height":405},"sizes":"(max-width: 720px) 100vw, 720px","srcset":["/assets/static/tf.7cd98a0.17e6c73af934387519862a7e88369b54.jpg 720w"],"dataUri":"data:image/svg+xml,%3csvg fill='none' viewBox='0 0 720 405' xmlns='http://www.w3.org/2000/svg' xmlns:xlink='http://www.w3.org/1999/xlink'%3e%3cdefs%3e%3cfilter id='__svg-blur-bf0a048bb0145e3b6b0e490622f8df7d'%3e%3cfeGaussianBlur in='SourceGraphic' stdDeviation='40'/%3e%3c/filter%3e%3c/defs%3e%3cimage x='0' y='0' filter='url(%23__svg-blur-bf0a048bb0145e3b6b0e490622f8df7d)' width='720' height='405' xlink:href='data:image/jpeg%3bbase64%2c/9j/2wBDAAYEBQYFBAYGBQYHBwYIChAKCgkJChQODwwQFxQYGBcUFhYaHSUfGhsjHBYWICwgIyYnKSopGR8tMC0oMCUoKSj/2wBDAQcHBwoIChMKChMoGhYaKCgoKCgoKCgoKCgoKCgoKCgoKCgoKCgoKCgoKCgoKCgoKCgoKCgoKCgoKCgoKCgoKCj/wAARCAAkAEADASIAAhEBAxEB/8QAGwABAAIDAQEAAAAAAAAAAAAAAAUHAwQGAQL/xAAuEAABAwMDAgQEBwAAAAAAAAABAgMEAAURBhIhMUEHE1FhFDJxkSIjNHKhscH/xAAaAQEAAgMBAAAAAAAAAAAAAAAAAQUDBAYC/8QAKREAAQMDAQYHAQAAAAAAAAAAAAECBAMFETEGFCJBgZESEyEjMnGh0f/aAAwDAQACEQMRAD8AoilKV7JPQCSAASScADqasfRvhXcrsESr0VW2CedhH5yx9D8o9z9qhvC65wbTqcSLgtpsFopacdTkJWSO/bjPNXg1qSHcpkiLElIkOsBKnUtHKU7s456E8GuT2gu0yK7yYzMJjKuxnty6lzboFOQiPe5NdDQmaC0lItqLYmGI5QMokoJDu71Kz830PFUXrOwHTd%2bdt/xCZKAlLiHAnblJ6ZHrVu%2bIsrUtkkxbpaY/n21tkiQlSdyUq3ZCiByBjv09apS83WZeZ65txd82QsAZAAAA6AAdBWPZhkx3vPq%2bKmqaZyqOz%2bd%2bYum7t4GNVHJ2waNKUrsCmFKUoBVl%2bCv6i7/sa/tVcUxYZsm3NTIaUykrDilNs7itpKMbivIAA5HQmp3STmodNXJzybO86l3CHWnE7c4G7hXY4V/NV13jPlQ30aXyXGOiopu2%2buyhIbUfon8LE8SNUNWWzvWp1Lr8iawtLYBwlCTlJUT/AJVEV3WrGNQancaucyG3HwhaGIgCvM2BSfbBJKxjJB9gK5OXaLhDbW5KhPtNoO0rUn8Oe3PSsNkt24Rka5ONfV32TcJe9VlcmiaGjSlKtzRFKUoCRgXm4wYzkeJKW2w4lSFN7UqSQSCeCD3A57Y4rO3qO7oCgJqiFK3KCm0KCjz1BHPUn2PPWlKAxi%2b3QSUyPjnvOSCAskE8lJP1yUp%2b1fU3UF1m29UGTMUuGVhflBCEpBHTGAMAdgOB6UpQETSlKA//2Q==' /%3e%3c/svg%3e"},"title":"03. Design and code responsive skeleton screens","date":"2017-11-22T00:00:00.000Z","author":{"title":"Ramana Reddy Sane","path":"/author/ramsane/"},"excerpt":"The file explorer is accessible using the button in left corner of the navigation bar. You can create a new file by clicking the **New file** button in the file explorer. You can also create folders by clicking the **New folder** button.","tags":[{"id":"t1","title":"vuejs","path":"/tag/vuejs/"},{"id":"t2","title":"mathematics","path":"/tag/mathematics/"}],"path":"/articles/third-article/"}}]}},"context":{}}