{"hash":"2f4e6bdc0278abb40f618f1a2df4905e6cb1d0f5","data":{"articles":{"pageInfo":{"currentPage":1,"totalPages":3,"totalItems":6,"perPage":2},"edges":[{"node":{"id":"d62792f675337dee0684f2ec947c0084","category":{"title":"Computer Vision","path":"/category/computer-vision/"},"image":{"type":"image","mimeType":"image/jpeg","src":"/assets/static/tf.7cd98a0.17e6c73af934387519862a7e88369b54.jpg","size":{"width":720,"height":405},"sizes":"(max-width: 720px) 100vw, 720px","srcset":["/assets/static/tf.7cd98a0.17e6c73af934387519862a7e88369b54.jpg 720w"],"dataUri":"data:image/svg+xml,%3csvg fill='none' viewBox='0 0 720 405' xmlns='http://www.w3.org/2000/svg' xmlns:xlink='http://www.w3.org/1999/xlink'%3e%3cdefs%3e%3cfilter id='__svg-blur-bf0a048bb0145e3b6b0e490622f8df7d'%3e%3cfeGaussianBlur in='SourceGraphic' stdDeviation='40'/%3e%3c/filter%3e%3c/defs%3e%3cimage x='0' y='0' filter='url(%23__svg-blur-bf0a048bb0145e3b6b0e490622f8df7d)' width='720' height='405' xlink:href='data:image/jpeg%3bbase64%2c/9j/2wBDAAYEBQYFBAYGBQYHBwYIChAKCgkJChQODwwQFxQYGBcUFhYaHSUfGhsjHBYWICwgIyYnKSopGR8tMC0oMCUoKSj/2wBDAQcHBwoIChMKChMoGhYaKCgoKCgoKCgoKCgoKCgoKCgoKCgoKCgoKCgoKCgoKCgoKCgoKCgoKCgoKCgoKCgoKCj/wAARCAAkAEADASIAAhEBAxEB/8QAGwABAAIDAQEAAAAAAAAAAAAAAAUHAwQGAQL/xAAuEAABAwMDAgQEBwAAAAAAAAABAgMEAAURBhIhMUEHE1FhFDJxkSIjNHKhscH/xAAaAQEAAgMBAAAAAAAAAAAAAAAAAQUDBAYC/8QAKREAAQMDAQYHAQAAAAAAAAAAAAECBAMFETEGFCJBgZESEyEjMnGh0f/aAAwDAQACEQMRAD8AoilKV7JPQCSAASScADqasfRvhXcrsESr0VW2CedhH5yx9D8o9z9qhvC65wbTqcSLgtpsFopacdTkJWSO/bjPNXg1qSHcpkiLElIkOsBKnUtHKU7s456E8GuT2gu0yK7yYzMJjKuxnty6lzboFOQiPe5NdDQmaC0lItqLYmGI5QMokoJDu71Kz830PFUXrOwHTd%2bdt/xCZKAlLiHAnblJ6ZHrVu%2bIsrUtkkxbpaY/n21tkiQlSdyUq3ZCiByBjv09apS83WZeZ65txd82QsAZAAAA6AAdBWPZhkx3vPq%2bKmqaZyqOz%2bd%2bYum7t4GNVHJ2waNKUrsCmFKUoBVl%2bCv6i7/sa/tVcUxYZsm3NTIaUykrDilNs7itpKMbivIAA5HQmp3STmodNXJzybO86l3CHWnE7c4G7hXY4V/NV13jPlQ30aXyXGOiopu2%2buyhIbUfon8LE8SNUNWWzvWp1Lr8iawtLYBwlCTlJUT/AJVEV3WrGNQancaucyG3HwhaGIgCvM2BSfbBJKxjJB9gK5OXaLhDbW5KhPtNoO0rUn8Oe3PSsNkt24Rka5ONfV32TcJe9VlcmiaGjSlKtzRFKUoCRgXm4wYzkeJKW2w4lSFN7UqSQSCeCD3A57Y4rO3qO7oCgJqiFK3KCm0KCjz1BHPUn2PPWlKAxi%2b3QSUyPjnvOSCAskE8lJP1yUp%2b1fU3UF1m29UGTMUuGVhflBCEpBHTGAMAdgOB6UpQETSlKA//2Q==' /%3e%3c/svg%3e"},"title":"06. Design and code responsive skeleton screens - Part 2","date":"2019-02-22T00:00:00.000Z","author":{"title":"Ramana Reddy Sane","path":"/author/ramsane/"},"excerpt":"The file explorer is accessible using the button in left corner of the navigation bar. You can create a new file by clicking the **New file** button in the file explorer. You can also create folders by clicking the **New folder** button.","tags":[{"id":"t1","title":"vuejs","path":"/tag/vuejs/"},{"id":"t2","title":"mathematics","path":"/tag/mathematics/"}],"path":"/articles/sixth-article/"}},{"node":{"id":"1cd7e58e6839888805ac94c448ecc316","category":{"title":"Natural Language processing","path":"/category/narural-language-processing/"},"image":{"type":"image","mimeType":"image/jpeg","src":"/assets/static/stats.662b9e1.634c49f88cff2fdfaa637489e543c269.jpg","size":{"width":530,"height":300},"sizes":"(max-width: 530px) 100vw, 530px","srcset":["/assets/static/stats.662b9e1.634c49f88cff2fdfaa637489e543c269.jpg 530w"],"dataUri":"data:image/svg+xml,%3csvg fill='none' viewBox='0 0 530 300' xmlns='http://www.w3.org/2000/svg' xmlns:xlink='http://www.w3.org/1999/xlink'%3e%3cdefs%3e%3cfilter id='__svg-blur-822f1056b2cb887dba3668abeae1f21e'%3e%3cfeGaussianBlur in='SourceGraphic' stdDeviation='40'/%3e%3c/filter%3e%3c/defs%3e%3cimage x='0' y='0' filter='url(%23__svg-blur-822f1056b2cb887dba3668abeae1f21e)' width='530' height='300' xlink:href='data:image/jpeg%3bbase64%2c/9j/2wBDAAYEBQYFBAYGBQYHBwYIChAKCgkJChQODwwQFxQYGBcUFhYaHSUfGhsjHBYWICwgIyYnKSopGR8tMC0oMCUoKSj/2wBDAQcHBwoIChMKChMoGhYaKCgoKCgoKCgoKCgoKCgoKCgoKCgoKCgoKCgoKCgoKCgoKCgoKCgoKCgoKCgoKCgoKCj/wAARCAAkAEADASIAAhEBAxEB/8QAGgAAAgMBAQAAAAAAAAAAAAAAAAYDBQcEAv/EADoQAAEDAwIDAwgHCQAAAAAAAAECAwQABREGIRIxQVFhcRMUMjWBobGyBxUWInJzdCUzNDZSYrPR4f/EABgBAQEBAQEAAAAAAAAAAAAAAAUEBgID/8QALxEAAQIEAggGAgMAAAAAAAAAAQIDAAQRIQUSBhMxM0FRYYEiYnGxs/AUQkPB0f/aAAwDAQACEQMRAD8AXKK9stredS22MrUcAZA95rt8s1A2iKS7KHN8eij8Gev9x9mOqhMYAJrcweZNsJxPdW06rk2hHEpA7Vjp4c/DFeRblO7w3mZA/pCuBY8Uqx7ia0Gx6A87s7MpN1db89ZStxPkgfSGcZ9tLv2NnKv06PCjKuEWE8G3CHEtFWUg9TtzqdMw2SRXZF68PeQlJKLHZS558K8OkUZUi27NlLk3qvmlnuHarv5DpWt6DuTc/TbMW4GLKXGTwqUtIWeHGRxE75x8DSjpjTcm3azgoutvS1HfDhbacWlwbDuJpq%2bkCCm3WB2bbG0xUtEGQGE8JWjOOnPBPvqOeVrwGUKoTS8LYQyuXzvrFhUZT6VreKG%2bs2W4zgYsFDMcYylslvjOdzt7KRLxAXCluANlLClEtHOfu52Ge0Cr%2bJM4sId2V0V/urBQbfbLUlIWg9tHB6Zw9zx1Unl/YhTUSWLshpQDbg2KAoD0V/v0pMCI7OmMxY4BeeUEIBOAT400TtDXpiAXFwozYYSpbjiXwSoAZ5Z7jy7aodOSUw77AkrSpSWnQohPM1qd21tDkWuaymJKCnGVoBJTgZSR2087r8w1SaiMnKCSKFfkrorh9oYY9Jfyvaf0rXyiuHS/r/VP61v/ABCsygSpSYMdKX3wkIAAC1YG1T2SddGZFw8yekDjdSVlO5J4euandkQ2lS1OAA87Dbzi5nH9apCEtKOXlcm1NnesP%2bppTELVen35TgbaSl7KiOWwrl1tf7ZK0rcWI8tK3VtgJSEnf7w7qTprk%2b43eA3c3XiAF8JWBttRfLYhm0yXA4olKQcEd4o9c7h8u62w65VZpTLcGptenO0WZsSmWnXpdoBu9c1lDwitq8riJdRybfcG0vwobzMoJHENuFf/AGqS2XNDiSMkpSeFQPpIPYRTsz6DfgKyu4pUm6SXWF%2bTeDqxxdCOI7EdanwfGGsYzsFrKE%2bau3sKR64tIPYXkecdz5vLl2dzWOmzISu6xULGUlwAinu4W%2bMmDJUloAhtRG/caKKO0nnJhicZQ04Ugi4BI49I99GpOXfk3lutpUQbEgGlusSWYD6ohbD9ynp3VBaB%2b0bv%2ben5KKKyKiazf3%2bRMa1IFJX7%2bioJ3r22eDnwr1qT1HM/CPiKKK7Z38l2%2bRUcPbic7/GmLFn0G/AVl9w/j5X5y/mNFFP6E79/0HuYB003LPqfYR//2Q==' /%3e%3c/svg%3e"},"title":"05. Second Article - Part 2","date":"2018-01-22T00:00:00.000Z","author":{"title":"Ramana Reddy Sane","path":"/author/ramsane/"},"excerpt":"The file explorer is accessible using the button in left corner of the navigation bar. You can create a new file by clicking the **New file** button in the file explorer. You can also create folders by clicking the **New folder** button.","tags":[{"id":"t1","title":"vuejs","path":"/tag/vuejs/"},{"id":"t2","title":"mathematics","path":"/tag/mathematics/"}],"path":"/articles/fifth-article/"}}]}},"context":{}}